[
  { 
    "name": "虎王", 
    "species": "哺乳類", 
    "gender": "男生", 
    "age": 5 , 
    "health" : "健康"
  },
  { 
    "name": "雛鳥", 
    "species": "鳥類", 
    "gender": "女生", 
    "age": 12 , 
    "health" : "普通"
  },
  { "name": "二號蝶", 
    "species": "昆蟲", 
    "gender": "男生", 
    "age": 1 , 
    "health" : "待檢查"
  },
  { 
    "name": "虎頭鯨", 
    "species": "魚類", 
    "gender": "女生", 
    "age": 45 , 
    "health" : "傷殘"
  },
  { 
    "name": "雛鳥", 
    "species": "鳥類", 
    "gender": "女生", 
    "age": 12 , 
    "health" : "普通"
  },
  { "name": "二號蝶", 
    "species": "昆蟲", 
    "gender": "男生", 
    "age": 1 , 
    "health" : "待檢查"
  },
  { 
    "name": "虎頭鯨", 
    "species": "魚類", 
    "gender": "女生", 
    "age": 45 , 
    "health" : "傷殘"
  },
  { 
    "name": "小蜥", 
    "species": "兩棲類", 
    "gender": "男生", 
    "age": 60 , 
    "health" : "虛弱"
  }
]